{
  "appId": "io.tenseventyseven.arion",
  "appName": "Arion",
  "bundledWebRuntime": false,
  "npmClient": "npm",
  "webDir": "www",
  "backgroundColor": "#000",
  "android": {
    "backgroundColor": "#000",
    "allowMixedContent": true
  },
  "ios": {
    "backgroundColor": "#000"
  },
  "cordova": {},
  "plugins": {
    "SplashScreen": {
      "launchAutoHide": false,
      "showSpinner": false
    }
  }
}
